III Congreso y XIV Jornadas de Usuarios de R
…
Ya estamos en condiciones de cruzar las tablas
Hombres y Mujeres, con
el data.frame SENADO. Como en ambos listados hay
una variable que se llama igual (“Frecuencia”) empezamos modificando ese
nombre: 

Hombres <-Hombres %>% select(Nombre, Frecuencia_H=Frecuencia) 
Mujeres <-Mujeres %>% select(Nombre, Frecuencia_M=Frecuencia)
Mujeres

## # A tibble: 28,304 x 2
##    Nombre        Frecuencia_M
##    <chr>                <dbl>
##  1 MARIA CARMEN        636109
##  2 MARIA               568535
##  3 CARMEN              357905
##  4 ANA MARIA           268207
##  5 LAURA               258046
##  6 MARIA PILAR         256038
##  7 MARIA DOLORES       249875
##  8 ISABEL              249655
##  9 JOSEFA              247271
## 10 MARIA TERESA        243086
## # i 28,294 more rows
…
